com\testproject\employee\entity\EmployeeMapper.class
com\testproject\employee\entity\Employee.class
com\testproject\employee\controller\EmployeeController.class
com\testproject\employee\dao\EmployeeDao.class
com\testproject\employee\controller\MainController.class
com\testproject\employee\filter\CharacterEncodingFilter.class
com\testproject\employee\dao\EmployeeDaoImpl.class
